<?xml version="1.0" encoding="iso-8859-1"?>
<!-- Generator: Adobe Illustrator 23.0.0, SVG Export Plug-In . SVG Version: 6.00 Build 0)  -->
<svg version="1.1" id="&#x421;&#x43B;&#x43E;&#x439;_1"
	 xmlns="http://www.w3.org/2000/svg" xmlns:xlink="http://www.w3.org/1999/xlink" x="0px" y="0px" viewBox="0 0 623.375 634.375"
	 style="enable-background:new 0 0 623.375 634.375;" xml:space="preserve">
<g>
	<path style="fill:none;stroke:#F2F2F2;stroke-width:0.75;stroke-miterlimit:10;" d="M623,323.875
		c0-41.867-8.199-82.481-24.371-120.715c-13.443-31.782-31.892-60.768-54.926-86.389c1.649-1.631,2.672-3.894,2.672-6.397
		c0-4.971-4.029-9-9-9c-2.342,0-4.468,0.902-6.069,2.368c-28.289-28.077-61.154-50.158-97.716-65.622
		c-38.235-16.17-78.848-24.37-120.715-24.37s-82.481,8.2-120.715,24.371c-16.968,7.177-33.13,15.794-48.42,25.757
		c-1.546-2.12-4.041-3.503-6.866-3.503c-4.694,0-8.5,3.806-8.5,8.5c0,1.724,0.517,3.325,1.398,4.664
		c-12.763,9.358-24.853,19.708-36.19,31.044c-24.1,24.099-43.798,51.565-58.758,81.815c-1.519-0.656-3.191-1.023-4.951-1.023
		c-6.904,0-12.5,5.596-12.5,12.5c0,5.035,2.983,9.363,7.272,11.343C18.12,225.6,13.049,242.404,9.434,259.539
		c-0.503-0.106-1.024-0.164-1.559-0.164c-4.142,0-7.5,3.358-7.5,7.5c0,3.742,2.743,6.834,6.325,7.399
		c-2.613,16.286-3.95,32.841-3.95,49.601c0,40.514,7.702,79.849,22.852,116.996c-1.902,0.865-3.227,2.778-3.227,5.004
		c0,3.038,2.462,5.5,5.5,5.5c0.721,0,1.408-0.143,2.039-0.395c15.449,34.371,36.841,65.359,63.669,92.186
		c20.463,20.463,43.356,37.748,68.314,51.662c-1.125,2.19-1.772,4.666-1.772,7.297c0,8.837,7.163,16,16,16
		c6.396,0,11.898-3.762,14.46-9.185c0.527,0.226,1.047,0.465,1.575,0.689C230.394,625.801,271.008,634,312.875,634
		s82.48-8.199,120.715-24.371c36.93-15.62,70.096-37.981,98.576-66.463c0.856-0.856,1.688-1.729,2.532-2.593
		c1.24,1.117,2.876,1.802,4.677,1.802c3.866,0,7-3.134,7-7c0-1.968-0.815-3.744-2.123-5.016c2.424-2.711,4.802-5.456,7.123-8.241
		c0.951,0.785,2.17,1.257,3.5,1.257c3.038,0,5.5-2.462,5.5-5.5c0-1.759-0.829-3.321-2.114-4.328
		c16.36-21.109,29.888-44.181,40.368-68.957C614.801,406.356,623,365.742,623,323.875z M554.875,512.375c-3.038,0-5.5,2.462-5.5,5.5
		c0,1.563,0.655,2.97,1.701,3.971c-2.324,2.792-4.702,5.536-7.12,8.244c-1.228-1.065-2.827-1.715-4.581-1.715c-3.866,0-7,3.134-7,7
		c0,1.924,0.777,3.665,2.033,4.93c-56.301,57.615-134.805,93.445-221.533,93.445c-43.352,0-84.645-8.963-122.146-25.11
		c0.89-1.992,1.396-4.192,1.396-6.515c0-8.837-7.163-16-16-16c-6.071,0-11.351,3.381-14.062,8.362
		c-57.904-32.398-104.411-82.824-131.839-143.645c1.861-0.882,3.152-2.772,3.152-4.968c0-3.038-2.462-5.5-5.5-5.5
		c-0.696,0-1.359,0.134-1.971,0.37C11.154,404.66,3,365.205,3,323.875c0-16.866,1.375-33.416,3.981-49.558
		c0.294,0.035,0.591,0.058,0.894,0.058c4.142,0,7.5-3.358,7.5-7.5c0-3.505-2.407-6.439-5.656-7.262
		c3.668-17.325,8.782-34.122,15.221-50.254c1.514,0.652,3.182,1.016,4.935,1.016c6.904,0,12.5-5.596,12.5-12.5
		c0-5.018-2.963-9.333-7.229-11.323c22.209-44.735,54.907-83.372,94.866-112.678c1.546,2.119,4.04,3.501,6.864,3.501
		c4.694,0,8.5-3.806,8.5-8.5c0-1.726-0.518-3.329-1.401-4.67C192.592,32.474,250.613,14,312.875,14
		c84.994,0,162.098,34.405,218.138,90.009c-1.63,1.629-2.638,3.879-2.638,6.366c0,4.971,4.029,9,9,9
		c2.323,0,4.434-0.888,6.031-2.334c49.301,54.894,79.344,127.417,79.344,206.834c0,71.285-24.21,137.013-64.819,189.428
		C557.057,512.717,556.006,512.375,554.875,512.375z"/>
</g>
<g id="&#x421;&#x43B;&#x43E;&#x439;_3">
	<circle style="fill:#F2F2F2;" cx="566.125" cy="145.125" r="13.75"/>
	<circle style="fill:#F2F2F2;" cx="617.625" cy="379.625" r="5.25"/>
	<circle style="fill:#F2F2F2;" cx="119.625" cy="81.625" r="4.25"/>
	<circle style="fill:#F2F2F2;" cx="468.875" cy="590.875" r="13.5"/>
	<circle style="fill:#F2F2F2;" cx="328.875" cy="13.875" r="13.5"/>
	<circle style="fill:#F2F2F2;" cx="176.125" cy="602.125" r="10"/>
	<circle style="fill:#F2F2F2;" cx="7.875" cy="266.875" r="3"/>
</g>
</svg>
