<?xml version="1.0" encoding="iso-8859-1"?>
<!-- Generator: Adobe Illustrator 23.0.0, SVG Export Plug-In . SVG Version: 6.00 Build 0)  -->
<svg version="1.1" id="&#x421;&#x43B;&#x43E;&#x439;_1"
	 xmlns="http://www.w3.org/2000/svg" xmlns:xlink="http://www.w3.org/1999/xlink" x="0px" y="0px" viewBox="0 0 980 979.853"
	 style="enable-background:new 0 0 980 979.853;" xml:space="preserve">
<path style="fill:#FAFAFA;" d="M0,179.965c0.251-0.418,0.622-0.806,0.737-1.259c4.79-18.776,17.432-28.659,36.786-28.661
	c111.831-0.008,223.663-0.004,335.494-0.004c14,0,28.001-0.136,41.999,0.042c16.161,0.206,29.954,11.399,33.669,26.985
	c3.605,15.127-3.351,31.303-17.381,38.517c-4.73,2.432-10.36,3.802-15.692,4.223c-8.78,0.692-17.652,0.23-26.485,0.231
	c-103.998,0.003-207.996,0.002-311.994,0.002c-2.136,0-4.272,0-6.739,0c0,229.652,0,458.901,0,688.575
	c229.256,0,458.627,0,688.664,0c0-2.011,0-4.11,0-6.209c0-111.831-0.007-223.663,0.008-335.494
	c0.002-18.398,10.192-32.135,26.804-36.299c21.309-5.342,42.487,10.679,43.134,32.672c0.122,4.163,0.052,8.332,0.052,12.499
	c0.002,121.998,0.008,243.996-0.006,365.993c-0.002,19.216-10.961,33.212-28.751,36.639c-2.915,0.562-5.963,0.6-8.949,0.6
	c-251.162,0.026-502.324,0.028-753.486,0.015c-19.93-0.001-32.181-9.546-37.163-28.755c-0.121-0.467-0.462-0.876-0.7-1.313
	C0,692.632,0,436.299,0,179.965z"/>
<path style="fill:#FAFAFA;" d="M980,150.965c-2.758,11.155-10.276,18.966-18.116,26.798
	c-156.321,156.183-312.567,312.441-468.761,468.75c-5.645,5.65-11.94,9.891-19.271,13.014
	c-61.215,26.082-122.368,52.309-183.554,78.46c-21.353,9.126-43.31-0.218-49.719-21.067c-2.727-8.871-1.543-17.325,2.082-25.765
	c21.993-51.21,43.866-102.472,65.782-153.716c4.71-11.014,9.131-22.166,14.284-32.969c2.461-5.159,5.641-10.331,9.65-14.346
	c159.068-159.328,318.264-318.527,477.46-477.727c15.551-15.552,36.394-15.632,51.917-0.159
	c35.645,35.528,71.176,71.171,106.871,106.649c5.747,5.712,8.94,12.618,11.375,20.077C980,142.965,980,146.965,980,150.965z
	 M740.818,181.516C626.497,295.837,512.116,410.218,398.203,524.132c19.471,19.439,39.196,39.131,58.311,58.214
	c114.03-114.031,228.381-228.381,342.316-342.317C779.637,220.67,760.072,200.936,740.818,181.516z M774.713,147.699
	c19.46,19.45,39.091,39.071,58.284,58.253c20.327-20.204,40.943-40.697,61.124-60.756c-19.412-19.483-38.994-39.138-58.343-58.558
	C815.567,106.847,795.102,127.312,774.713,147.699z M340.691,640.2c25.378-10.902,49.449-21.244,73.139-31.421
	c-13.958-14.006-27.75-27.846-41.687-41.83C361.954,590.677,351.575,614.85,340.691,640.2z"/>
</svg>
